[gd_scene load_steps=5 format=2]

[ext_resource path="res://assets/models/trout_04/rainbowtrout.dae" type="PackedScene" id=1]
[ext_resource path="res://objects/Rainbow Trout/Rainbow Trout.gd" type="Script" id=2]
[ext_resource path="res://assets/sfx/twoc/wumpa_count.wav" type="AudioStream" id=3]

[sub_resource type="SphereShape" id=1]

radius = 0.384909

[node name="Rainbow Trout" instance=ExtResource( 1 )]

transform = Transform( 0.5, 0, 0, 0, 0.5, 0, 0, 0, 0.5, 0, 0, 0 )
script = ExtResource( 2 )
_sections_unfolded = [ "Transform" ]

[node name="AnimationPlayer" parent="." index="1"]

autoplay = "normal-loop"

[node name="CollisionShape" type="CollisionShape" parent="." index="2"]

shape = SubResource( 1 )
disabled = false

[node name="StartTimer" type="Timer" parent="." index="3"]

process_mode = 1
wait_time = 0.25
one_shot = true
autostart = true

[node name="CollectTimer" type="Timer" parent="." index="4"]

process_mode = 1
wait_time = 0.15
one_shot = true
autostart = false

[node name="CollectSound" type="AudioStreamPlayer3D" parent="." index="5"]

stream = ExtResource( 3 )
attenuation_model = 0
unit_db = 0.0
unit_size = 1.0
max_db = 3.0
pitch_scale = 1.0
autoplay = false
max_distance = 0.0
out_of_range_mode = 0
bus = "Master"
area_mask = 1
emission_angle_enabled = false
emission_angle_degrees = 45.0
emission_angle_filter_attenuation_db = -12.0
attenuation_filter_cutoff_hz = 5000.0
attenuation_filter_db = -24.0
doppler_tracking = 0

[connection signal="body_entered" from="." to="." method="_on_Rainbow_Trout_body_entered"]

[connection signal="timeout" from="StartTimer" to="." method="_on_StartTimer_timeout"]

[connection signal="timeout" from="CollectTimer" to="." method="_on_CollectTimer_timeout"]


