[gd_resource type="ShaderMaterial" load_steps=2 format=2]

[ext_resource path="res://objects/HUD/outline.shader" type="Shader" id=1]

[resource]

render_priority = 0
shader = ExtResource( 1 )
shader_param/intensity = null
shader_param/precision = null
shader_param/outline_color = null

